<?xml version="1.0" encoding="UTF-8" standalone="no"?>
<svg
   viewBox="0 0 33.867 33.867"
   height="128.001"
   width="128.001"
   version="1.1"
   id="svg10"
   sodipodi:docname="carreau_cahier_de_textes.svg"
   inkscape:version="1.2.2 (b0a8486541, 2022-12-01)"
   xmlns:inkscape="http://www.inkscape.org/namespaces/inkscape"
   xmlns:sodipodi="http://sodipodi.sourceforge.net/DTD/sodipodi-0.dtd"
   xmlns="http://www.w3.org/2000/svg"
   xmlns:svg="http://www.w3.org/2000/svg">
  <defs
     id="defs14" />
  <sodipodi:namedview
     id="namedview12"
     pagecolor="#ffffff"
     bordercolor="#000000"
     borderopacity="0.25"
     inkscape:showpageshadow="2"
     inkscape:pageopacity="0.0"
     inkscape:pagecheckerboard="0"
     inkscape:deskcolor="#d1d1d1"
     showgrid="false"
     inkscape:zoom="1.8437355"
     inkscape:cx="63.729315"
     inkscape:cy="64.271692"
     inkscape:window-width="1440"
     inkscape:window-height="831"
     inkscape:window-x="0"
     inkscape:window-y="0"
     inkscape:window-maximized="1"
     inkscape:current-layer="svg10" />
  <path
     d="M33.867 24.93H0m33.867-8.355H0M33.867 8.22H0"
     fill="#00f"
     stroke="#004af2"
     stroke-width=".269"
     id="path2" />
  <path
     d="M 33.867,33.509 H 0"
     id="path4"
     style="fill:#000000;stroke:#000000;stroke-width:0.717;stroke-opacity:1" />
  <path
     d="M 33.508,33.867 V 0"
     id="path6"
     style="fill:#ffd3d3;stroke:#000000;stroke-width:0.717;fill-opacity:1;stroke-opacity:1" />
</svg>
